[
 {
  "id":"1",
  "name":"Suzuki",
  "parent_id":"0"
 }, 
 {
  "id":"2",
  "name":"Hyundai",
  "parent_id":"0"
 }, 
 {
  "id":"3",
  "name":"Honda",
  "parent_id":"0"
 }, 
 {
  "id":"4",
  "name":"Mahindra",
  "parent_id":"0"
 }, 
 {
  "id":"5",
  "name":"Skoda",
  "parent_id":"0"
 }, 
 {
  "id":"6",
  "name":"Volkswagen",
  "parent_id":"0"
 }, 
 {
  "id":"7",
  "name":"Tata",
  "parent_id":"0"
 }, 
 {
  "id":"8",
  "name":"Toyota",
  "parent_id":"0"
 }, 
 {
  "id":"9",
  "name":"Renault",
  "parent_id":"0"
 }, 
 {
  "id":"10",
  "name":"Nissan",
  "parent_id":"0"
 }, 
 {
  "id":"11",
  "name":"Ford",
  "parent_id":"0"
 }, 
 {
  "id":"6",
  "name":"Swift",
  "parent_id":"1"
 }, 
 {
  "id":"3",
  "name":"Wagon R",
  "parent_id":"1"
 }, 
 {
  "id":"10",
  "name":"Dzire",
  "parent_id":"1"
 }, 
 {
  "id":"14",
  "name":"Ertiga",
  "parent_id":"1"
 }, 
 {
  "id":"11",
  "name":"Ciaz",
  "parent_id":"1"
 }, 
 {
  "id":"2",
  "name":"Alto 800",
  "parent_id":"1"
 }, 
 {
  "id":"1",
  "name":"Alto K10",
  "parent_id":"1"
 }, 
 {
  "id":"16",
  "name":"Omni",
  "parent_id":"1"
 }, 
 {
  "id":"17",
  "name":"Eeco",
  "parent_id":"1"
 }, 
 {
  "id":"40",
  "name":"Eon",
  "parent_id":"2"
 }, 
 {
  "id":"41",
  "name":"Santro",
  "parent_id":"2"
 }, 
 {
  "id":"42",
  "name":"Grand i10",
  "parent_id":"2"
 }, 
 {
  "id":"44",
  "name":"Elite i20",
  "parent_id":"2"
 }, 
 {
  "id":"46",
  "name":"Verna",
  "parent_id":"2"
 }, 
 {
  "id":"43",
  "name":"Xcent",
  "parent_id":"2"
 }, 
 {
  "id":"47",
  "name":"Elantra",
  "parent_id":"2"
  },
   {
  "id":"49",
  "name":"Tucson",
  "parent_id":"2"
  },
  {
   "id":"26",
  "name":"Brio",
  "parent_id":"3"
 },
 {
  "id":"27",
  "name":"Amaze",
  "parent_id":"3"
  },
  {
   "id":"33",
  "name":"Mobilio",
  "parent_id":"3"
  },
  {
   "id":"30",
  "name":"City",
  "parent_id":"3"
  },
  {
   "id":"28",
  "name":"Jazz",
  "parent_id":"3"
  },
  {
   "id":"31",
  "name":"BR-V",
  "parent_id":"3"
  },
  {
   "id":"29",
  "name":"WR-V",
  "parent_id":"3"
  },
  {
   "id":"32",
  "name":"CR-V",
  "parent_id":"3"
  },
  {
   "id":"60",
  "name":"KUV 100",
  "parent_id":"4"
  },
  {
   "id":"62",
  "name":"TUV 300",
  "parent_id":"4"
  },
  {
   "id":"64",
  "name":"XUV 500",
  "parent_id":"4"
  },
  {
   "id":"66",
  "name":"Scorpio",
  "parent_id":"4"
  },
  {
   "id":"63",
  "name":"Thar",
  "parent_id":"4"
  },
  {
   "id":"70",
  "name":"Marazzo",
  "parent_id":"4"
  },
  {
   "id":"65",
  "name":"Bolero",
  "parent_id":"4"
  },
  {
   "id":"146",
  "name":"Rapid",
  "parent_id":"5"
  },
  {
   "id":"145",
  "name":"Octavia",
  "parent_id":"5"
  },
  {
   "id":"147",
  "name":"Superb",
  "parent_id":"5"
  },
  {
   "id":"144",
  "name":"Kodiaq",
  "parent_id":"5"
  },
  {
   "id":"54",
  "name":"Polo",
  "parent_id":"6"
  },
  {
   "id":"56",
  "name":"Vento",
  "parent_id":"6"
  },
  {
   "id":"59",
  "name":"Passat",
  "parent_id":"6"
  },
  {
   "id":"57",
  "name":"Ameo",
  "parent_id":"6"
  },
  {
     "id":"58",
  "name":"Tiguan",
  "parent_id":"6"
  },
  {
     "id":"55",
  "name":"Polo GT",
  "parent_id":"6"
  },
  {
     "id":"19",
  "name":"Tiago",
  "parent_id":"7"
  },
  {
     "id":"21",
  "name":"Tigor",
  "parent_id":"7"
  },
  {
     "id":"23",
  "name":"Nexon",
  "parent_id":"7"
  },
  {
     "id":"24",
  "name":"Hexa",
  "parent_id":"7"
  },
  {
     "id":"71",
  "name":"Etios Liva",
  "parent_id":"8"
  },
  {
     "id":"72",
  "name":"Etios",
  "parent_id":"8"
  },
  {
     "id":"76",
  "name":"Innova Crysta",
  "parent_id":"8"
  },
  {
     "id":"78",
  "name":"Fortuner",
  "parent_id":"8"
  },
  {
     "id":"51",
  "name":"Duster",
  "parent_id":"9"
  },
  {
     "id":"50",
  "name":"Kwid",
  "parent_id":"9"
  },
  {
     "id":"53",
  "name":"Captur",
  "parent_id":"9"
  },
  {
     "id":"52",
  "name":"Lodgy",
  "parent_id":"9"
  },
  {
     "id":"124",
  "name":"Micra",
  "parent_id":"10"
  },
  {
     "id":"126",
  "name":"Terrano",
  "parent_id":"10"
  },
  {
     "id":"125",
  "name":"Sunny",
  "parent_id":"10"
  },
  {
     "id":"34",
  "name":"Figo",
  "parent_id":"11"
  },
  {
	   "id":"35",
  "name":"Aspire",
  "parent_id":"11"
  },
  {
	   "id":"37",
  "name":"Endeavour",
  "parent_id":"11"
  },
  {
	   "id":"36",
  "name":"Ecosport",
  "parent_id":"11"
  },
  {
	   "id":"38",
  "name":"Freestyle",
  "parent_id":"11"
  }]